{
   // Optional. Customer Information
   "customer":{
      //Required
      "firstName":"Andrew",
      // Required
      "lastName":"Morrinson",
      // Required
      "emailAddress":"andrew.morrinson@gmail.com",
      "shippingAddress":{
         // Optional. Name of the address in case the system allows several addresses pre customer
         "friendlyName":"Home",
         // Required. Addressee's first name
         "firstName":"Andrew",
         //Required addresse last Name
         "lastName": "Morrinson",
         // Required
         "line1":"1 Bryant Park",
         // Optional
         "line2":"Suite 4444",
         // Required
         "city":"New York",
         // Optional
         "county":"",
         // Required depending on country
         "state":"TN",
         // Required
         "postCode":"10064",
         // Required
         "country":{
            "name":"United States",
            "alpha2Code":"US"
         }
      }
   },
   // Optional
   "description":"Nick Fashion Garments - Payment Request - Summer t-shirt",
   // Optional. 
    "device":{
      // Optional. IMEI / Serial Number / Etc of device
      "deviceID":"990000862471854",
      // Optional. IP address of the client used for fraud screening
      "ipAddress":"127.0.0.1",
      // Optional. Geolocation coordinates
      "location":{
         "latitude":234.0,
         "longitude":3456.0
      }
   },
   // Request
   "paymentRequest":{
      // Required. Value: CASH, CREDITCARD, DEBITCARD, CHEQUE, PAYPAL, TRANSFER
      "paymentType":"CREDITCARD",
      // Required. Values: ABORT, AUTHENTICATE, AUTHORISE, CANCEL, CAPTURE, COMPLETE, DEFERRED, DIRECTREFUND, MANUAL, PAYMENT, REFUND, REMOVETOKEN, REPEAT, REPEATDEFERRED, TOKEN, VOID
      "type":"PAYMENT",
      // Required. Vendor's identifier supplied by the PSP
      "merchantId":"23440234223433",
      //Optional. Transaction reference assigned by the vendor
      "merchantTxCode":"8900001233",
      //Required. Transaction reference assigned by PSP. Used if this request needs a reference of a previous transaction.
      "providerTxCode":"ZXF777778RT",
      //Optional. Transaction reference assigned by the Bank . Used if this request needs a reference of a previous transaction.
      "bankAuthorizationCode":"49455234823234443424001",
      //Optional. 
      "amountTotal":{
         "amount":36.98,
         "currency":"USD"
      },
      "allowPartialAuth":true,
      "paymentCard":{
         // Optional. Name of the card in case the system allows more that one card per customer
         "friendlyName":"My Visa",
         // Required. Credit card number
         "number":"4444333322221111",
         //Required. Values: AMEX, BANKOFAMERICA, BARCLAYCARD, CAPITALONE, CARTASI, CARTEBLANCH, CARTEBLEUE, CHASE, CITI, DANKORT, DINERSCLUB, DISCOVERS, ELV, EPS, FIRSTPREMIER, GIROPAY, IDEAL, JCB, LASER, MAESTRO, MASTERCARD, MASTERCARDDEBIT, NICOS, PAYPAL, PLCC, SANTANDER, SOFORT, SWITCH, UKE, VISA
         "type":"AMEX",
         //Required. Card holder's name as it appears in the credit card
         "cardHolderName":"Andrew Morrinson",
         //Required. In the format YYYY/MM
         "expirationDate":"2020/08",
         // Optional depending on merchant configuration and payment processing type.
         "cvv":"123",
         // Required
         "billingAddress":{
            // Optional. Name of the address in case the system allows several addresses pre customer
            "friendlyName":"Home",
            // Required. Person holding the address
            "firstName":"Andrew",
            "lastName": "Morrinson",
            // Required
            "line1":"2 Some Road",
            // Optional
            "line2":"",
            // Required
            "city":"London",
            // Optional
            "county":"",
            // Optional
            "state":"",
            // Required
            "postCode":"SW20 0QJ",
            // Required
            "country":{
               "name":"United Kingdom",
               "alpha2Code":"GB"
            }
         }
      },
      // Optional. Security key used to build the hash txSignature
      "securityKey":"234VRTFNMRWW0",
      // Optional. Token provided by the PSP when using token payments
      "token":"AB456244FO4ADB",
      //Optional. freetext fields. Map to support specific fields the PSP may need
      "customFields":
      {
         "key2":"value2",
         "key1":"value1"
      }
   }
}