{
"products":[
    {
        // Required short name for the product
        "name":"I Heart Carrot Juice T-Shirt",

        // Required. Values: PRODUCT, DONATION, LEADGEN, WARRANTY, PAYWITHTIP, PAYNOTIP, TICKETING, PRODUCTWITHSCHEDULEDDELIVERY
        // These will be defined by PowaTag and a list will be published
        "type":"PRODUCT",

        // List of currencies the product is available in
        "availableCurrencies":[
            "USD",
            "GBP",
            "CAD",
            "EUR"
        ],
        // Parent code. If there are no product variants this field matches the product SKU, otherwise represents the code that groups the prod variants (sometimes called Catalog) 
        "code":"CARROT-TSHIRT",

        // marketing text.
        "description":"T-Shirt with funny saying on it",

        // Currency applied to variant prices. Needs to match a value in availableCurrencies.
        "currency":"USD",

        // Language the text is in.  
        "language":"en-US",

        // Publicly accessible artwork to be displayed in the app.  Arrays are already ordered
        // The first image in the list will be the default.
        "productImages": [
            {
                "name":"Front",
                "url":"http://url.to/image_1.jpg"
            },
            {
                "name":"Side",
                "url":"http://url.to/image_2.jpg"
            }
        ],

        // These are to faciliate mapping back to the eCommerce platform
        // and to provide the UI with a label to show next to the dropdown
        "productOptions":{
            "Color":{
                "id":"213523",
                "values":[
                    "Red",
                    "Blue",
                    "Green"
                ]
            },
            "Size":{
                "id":"111123",
                "values":[
                    "Small",
                    "Medium",
                    "Large",
                    "XLarge"
                ]
            }
        },

        // These are the variations.  Though this may not be formally supported by all platforms
        // (for example, a platform may just have a generic SKU + options that are needed
        // to find a product...that decoupling could be achieved via the adapter.  For display on the 
        // app we need to have a matrix of options so that we can show the correct price for each
        // combination.
        "productVariants":[
            {
                "code":"CSHIRT-S-B",
                "numberInStock":8,
                "originalPrice":{
                    "amount":17.99,
                    "currency":"GBP"
                },
                "finalPrice":{
                    "amount":15.99,
                    "currency":"GBP"
                },
                "options":{
                    "Color":"Blue",
                    "Size":"Small"
                }
            },
            {
                "code":"CSHIRT-M-B",
                "numberInStock":0,
                "originalPrice":{
                    "amount":11.99,
                    "currency":"GBP"
                },
                "finalPrice":{
                    "amount":13.99,
                    "currency":"GBP"
                },
                "options":{
                    "Color":"Blue",
                    "Size":"Medium"
                }
            },
            {
                "code":"CSHIRT-M-R",
                "numberInStock":2,
                "originalPrice":{
                    "amount":15.99,
                    "currency":"GBP"
                },
                "finalPrice":{
                    "amount":12.99,
                    "currency":"GBP"
                },
                "options":{
                    "Color":"Red",
                    "Size":"Medium"
                }
            }
        ],

        // These are used to display non-choosable attributes
        // that apply to all variants
        "productAttributes":{
            "Material":"100% Cotton",
            "Neck Style":"V-Neck"
        },

        // Optional freetext fields
        "customFields":{
            "name":"Gift Message"
        }
    }
]}